<?xml version="1.0" encoding="UTF-8"?>
<svg width="34px" height="48px" viewBox="0 0 34 48" version="1.1" xmlns="http://www.w3.org/2000/svg" xmlns:xlink="http://www.w3.org/1999/xlink">
    <!-- Generator: Sketch 48.2 (47327) - http://www.bohemiancoding.com/sketch -->
    <title>address</title>
    <desc>Created with Sketch.</desc>
    <defs></defs>
    <g id="Contact" stroke="none" stroke-width="1" fill="none" fill-rule="evenodd" transform="translate(-650.000000, -1702.000000)">
        <g id="Address" transform="translate(650.000000, 1663.000000)" fill="#D3AC2A" fill-rule="nonzero">
            <g id="address" transform="translate(0.000000, 39.000000)">
                <path d="M17.0679273,10.4727273 C13.7000727,10.4727273 10.9588364,13.2139636 10.9588364,16.5818182 C10.9588364,19.9496727 13.7000727,22.6909091 17.0679273,22.6909091 C20.4357818,22.6909091 23.1770182,19.9496727 23.1770182,16.5818182 C23.1770182,13.2139636 20.4357818,10.4727273 17.0679273,10.4727273 Z M17.0679273,20.9454545 C14.6618182,20.9454545 12.7042909,18.9879273 12.7042909,16.5818182 C12.7042909,14.1757091 14.6618182,12.2181818 17.0679273,12.2181818 C19.4740364,12.2181818 21.4315636,14.1757091 21.4315636,16.5818182 C21.4315636,18.9879273 19.4740364,20.9454545 17.0679273,20.9454545 Z" id="Shape"></path>
                <path d="M28.7476364,4.90210909 C25.5866182,1.74109091 21.3835636,0 16.9134545,0 C12.4424727,0 8.24029091,1.74109091 5.07927273,4.90210909 C-0.770618182,10.7511273 -1.4976,21.7562182 3.50487273,28.4238545 L16.9134545,47.7879273 L30.3019636,28.4509091 C35.3245091,21.7562182 34.5975273,10.7511273 28.7476364,4.90210909 Z M28.8864,27.4306909 L16.9134545,44.7211636 L4.92130909,27.4036364 C0.384,21.3538909 1.03418182,11.4152727 6.31418182,6.13614545 C9.14530909,3.30501818 12.9093818,1.74545455 16.9134545,1.74545455 C20.9175273,1.74545455 24.6816,3.30501818 27.5136,6.13614545 C32.7936,11.4152727 33.4437818,21.3538909 28.8864,27.4306909 Z" id="Shape"></path>
            </g>
        </g>
    </g>
</svg>